[
  {
    "page": 1,
    "pages": 6,
    "per_page": "50",
    "total": 264
  },
  [
    {
      "id": "ABW",
      "iso2Code": "AW",
      "name": "Aruba",
      "region": {
        "id": "LCN",
        "value": "Latin America & Caribbean (all income levels)"
      },
      "adminregion": {
        "id": "",
        "value": ""
      },
      "incomeLevel": {
        "id": "NOC",
        "value": "High income: nonOECD"
      },
      "lendingType": {
        "id": "LNX",
        "value": "Not classified"
      },
      "capitalCity": "Oranjestad",
      "longitude": "-70.0167",
      "latitude": "12.5167"
    }
  ]
]